Assignment 1: proposition of answers
…
depp_metro <- depp_modif %>% 
  mutate(dpt = if_else(dpt %in% c("2A", "2B"), "20", dpt)) %>% 
  filter(dpt %in% formatC(1:95, width = 2, flag = "0"))

faits_2010_metro <- faits_2010_modif %>% 
  mutate(dpt = if_else(dpt %in% c("2A", "2B"), "20", dpt)) %>% 
  filter(dpt %in% formatC(1:95, width = 2, flag = "0"))

dpt_data_metro <- dpt_data_modif %>% 
    mutate(CODE_DEPT = if_else(CODE_DEPT %in% c("2A", "2B"), "20", CODE_DEPT)) %>% 
  filter(CODE_DEPT %in% formatC(1:95, width = 2, flag = "0"))

dpt_data_metro

## # A tibble: 96 x 7
##    CODE_DEPT NOM_DEPT   CODE_CHF NOM_CHF   CODE_REG NOM_REG      surface_m
##    <chr>     <chr>      <chr>    <chr>        <int> <chr>            <dbl>
##  1 39        JURA       300      LONS-LE-       27 BOURGOGNE-F    5.04e9
##  2 42        LOIRE      218      SAINT-ET       84 AUVERGNE-RH    4.80e9
##  3 76        SEINE-MAR 540      ROUEN           28 NORMANDIE       6.33e9
##  4 89        YONNE      024      AUXERRE         27 BOURGOGNE-F    7.45e9
##  5 68        HAUT-RHIN  066      COLMAR          44 ALSACE-CHAM    3.53e9
##  6 28        EURE-ET-L 085      CHARTRES        24 CENTRE-VAL     5.93e9
##  7 10        AUBE       387      TROYES          44 ALSACE-CHAM    6.02e9
##  8 55        MEUSE      029      BAR-LE-D       44 ALSACE-CHAM    6.23e9
##  9 61        ORNE       001      ALENCON         28 NORMANDIE       6.14e9
## 10 67        BAS-RHIN   482      STRASBOU       44 ALSACE-CHAM    4.80e9
## # ... with 86 more rows
…
# Nombre de collges en France en 2016
nb_colleges <- depp_metro %>%
  filter(nature_uai_libe == "Collge") %>%
  group_by(dpt) %>%
  summarise(coll = n())

# Jointure
enf_coll <- inner_join(nb_enfants, nb_colleges, by = "dpt") %>%
  mutate(ratio = enf/coll) %>%
  arrange(desc(ratio))

enf_coll

## # A tibble: 95 x 4
##    dpt      enf  coll ratio
##    <chr>  <int> <int> <dbl>
##  1 75    138387   190  728.
##  2 92     84505   139  608.
##  3 69     87948   169  520.
##  4 59    138285   288  480.
##  5 76     59816   133  450.
##  6 84     24903    58  429.
##  7 42     32065    77  416.
##  8 51     25268    61  414.
##  9 74     29315    71  413.
## 10 68     29188    71  411.
## # ... with 85 more rows

Number of Facts observed by the police services in 2010 per department ?

# Nb faits par dpt en 2010
faits_2010_metro %>%
  group_by(dpt) %>%
  summarise(faits = sum(nombre))

## # A tibble: 95 x 2
##    dpt   faits
##    <chr> <int>
##  1 01    22615
##  2 02    24052
##  3 03    11653
##  4 04     7035
##  5 05     5303
##  6 06    93308
##  7 07    11011
##  8 08    10795
##  9 09     4829
## 10 10    14360
## # ... with 85 more rows
…
# Nb faits par dpt en 2010
nb_faits <- faits_2010_metro %>%
  group_by(dpt) %>%
  summarise(nb_faits = sum(nombre))

# Jointure par dpt
all_by_dpt <- nb_enfants %>%
  inner_join(nb_colleges, by = "dpt") %>%
  inner_join(nb_faits, by = "dpt") %>%
  arrange(desc(nb_enfants), desc(nb_colleges), desc(nb_faits))

all_by_dpt

## # A tibble: 95 x 4
##    dpt   nb_enfants nb_colleges nb_faits
##    <chr>      <int>       <int>    <int>
##  1 75         35795         190   238856
##  2 59         33771         288   166565
##  3 69         23073         169   115632
##  4 92         22114         139    96520
##  5 13         21893         194   172445
##  6 93         16082         158   142798
##  7 62         14983         160    73918
##  8 76         14878         133    66765
##  9 44         14539         147    71222
## 10 94         14355         138    90376
## # ... with 85 more rows

Number of children born, number of colleges and facts related by the police services per km in 2010 by department?

stats_km2 <- dpt_data_modif %>%
  mutate(surface_km = surface_m / 1e6) %>%
  inner_join(all_by_dpt, by = c("CODE_DEPT" = "dpt")) %>%
  mutate_if(is.integer, as.numeric) %>% # facultatif
  mutate_at(vars(starts_with("nb_")), funs(bykm = ./surface_km))

stats_km2 %>% 
  select("CODE_DEPT", "NOM_DEPT", ends_with("bykm"), everything())

## # A tibble: 94 x 14
##    CODE_DEPT NOM_DEPT nb_enfants_bykm nb_colleges_bykm nb_faits_bykm
##    <chr>     <chr>              <dbl>            <dbl>         <dbl>
##  1 39        JURA               0.302          0.00734          1.65
##  2 42        LOIRE              1.63           0.0161           7.24
##  3 76        SEINE-M           2.35           0.0210          10.6 
##  4 89        YONNE              0.287          0.00470          2.14
##  5 68        HAUT-RH           1.87           0.0201           9.14
##  6 28        EURE-ET           0.562          0.00844          2.97
##  7 10        AUBE               0.362          0.00565          2.38
##  8 55        MEUSE              0.148          0.00465          1.09
##  9 61        ORNE               0.353          0.00733          1.64
## 10 67        BAS-RHIN           2.18           0.0231          10.3 
## # ... with 84 more rows, and 9 more variables: CODE_CHF <chr>,
## #   NOM_CHF <chr>, CODE_REG <dbl>, NOM_REG <chr>, surface_m <dbl>,
## #   surface_km <dbl>, nb_enfants <dbl>, nb_colleges <dbl>, nb_faits <dbl>
…
