…
```{r}
filter_na <- function(df, col) {
  col <- enquo(col)
  df %>% 
    filter(! is.na(!!col)) 
}
```

Create prop_table(), a function that takes a data.frame, a suite of columns, and counts the number of observation for each combination.

This should output:

```
prop_table(starwars, eye_color, skin_color)
# A tibble: 53 x 3
   eye_color skin_color           n
   <chr>     <chr>            <int>
 1 black     green                2
 2 black     grey                 4
 3 black     none                 1
 4 black     orange               1
 5 black     red, blue, white     1
 6 black     white, blue          1
 7 blue      blue                 1
 8 blue      brown                1
 9 blue      dark                 1
10 blue      fair                10
# ... with 43 more rows
```

```{r}
prop_table <- function(tbl, ...){
  tbl %>%
    count( !!!quos(...) ) 
}
```

Enhance prop_table() with the proporition, instead of just the count.

```
prop_table_with_prop(starwars, eye_color, skin_color)
# A tibble: 53 x 4
   eye_color skin_color           n   prop
   <chr>     <chr>            <int>  <dbl>
 1 black     green                2 0.0230
 2 black     grey                 4 0.0460
 3 black     none                 1 0.0115
 4 black     orange               1 0.0115
 5 black     red, blue, white     1 0.0115
 6 black     white, blue          1 0.0115
 7 blue      blue                 1 0.0115
 8 blue      brown                1 0.0115
 9 blue      dark                 1 0.0115
10 blue      fair                10 0.115 
# ... with 43 more rows
```
…
